[
  {
    "availability": {
      "available": true,
      "availability_title": "Bonne nouvelle",
      "availability_text": "je suis actuellement disponible pour travailler avec vous, n'hésitez pas à me contacter"
    },
    "homepage": {
      "color": "pink",
      "header": {
        "title": "Hey!",
        "subtitle": "Je suis Josselin",
        "text": "Développeur web <br/>& webdesigner <br/> Freelance",
        "textButton": "En savoir plus"
      },
      "myWork": {
        "title": "Mon travail",
        "text1": "<p>Je vous accompagne tout au long de la création de votre projet web.</p> <p>De la définition du projet à sa livraison, en passant par le développement, je suis disponible pour réaliser le site dont vous avez besoin, sur mesure.</p> <p>N'hésitez pas à me contacter pour vous aider sur une des tâches suivantes :</p> ",
        "text2": "Je réalise des sites web statiques ultra-rapides grâce aux technologies React et Gatsby.js. <br/> Parfait pour des sites institutionnels ou évènementiels. Ne perdez plus vos visiteurs à cause de chargements de pages trop longs, et convertissez les en clients…. rapidement !",
        "knowledge": [
          {
            "descr": "Réalisation de site <b>Javascript</b>. (Gatsby, React, Express)",
            "emoji": "🔮"
          },
          {
            "descr": "Réalisation <b>HTML5</b> sémantique.",
            "emoji": "⌨️"
          },
          {
            "descr": "Réalisation <b>CSS3</b>, <b>SASS</b>. (CSSinJS, Animations, SVG)",
            "emoji": "📐"
          },
          {
            "descr": "Aide à la <b>mise en ligne</b> d'un site web. (Serveur Netlify/Azure/Heroku, nom de domaine)",
            "emoji": "🌐"
          },
          {
            "descr": "Intermédiaire/<b>Chef de projet</b> - d'une equipe dev remote. (français, espagnol, portugais, anglais)",
            "emoji": "🤹‍♂️"
          }
        ],
        "tools": [
          "CSS : From scratch ou avec framework (Bootstrap, Bulma)",
          "JS : utilisations des derniers Frameworks Js (React / Angular)",
          "Design : Adobe XD, Illustrator, Indesign, Photoshop",
          "Workflow : Agile, Git, NPM, Slack"
        ]
      },
      "production": {
        "title_projects": "Mes Travaux",
        "title_experiences": "Réalisations / Jobs"
      },
      "location": {
        "title": "Localisation",
        "text": "Je travaille actuellement depuis <br/><b>Medellín, Colombie</b><br/> et réalise votre projet en communicant avec vous (via Skype, chat, mail) à chaque étape."
      }
    },
    "biopage": {
      "color": "blue",
      "header": { "title": "Josselin", "subtitle": "À propos" },
      "body": {
        "title": "Parcours",
        "text": "Diplômé en Gestion de Projets, spécialité développement web, en 2015 à Paris. <br/> Je réalise des sites web depuis mes 16 ans (2007). Dix ans plus tard, toujours à la recherche des meilleures façons de développer des sites web, j'utilise les meilleurs Framework pour répondre à vos besoins.<br/>J'ai travaillé dans différentes agences web parisiennes et à l'étranger, et ai l'expérience pour travailler sur votre projet quel qu'il soit (Wordpress, Shopify, Javascript...) ."
      },
      "business": {
        "title": "Micro entreprise",
        "text": "Micro entreprise déclarée en France, non soumise à la TVA",
        "siret": "SIRET 79371509500014",
        "name": "CAER Josselin"
      },
      "cgv": {
        "title": "Découvrez mes <u>conditions générales de vente</u>",
        "link": "cgv.pdf"
      }
    },
    "gatsbypage": {
      "color": "pink",
      "hero": {
        "title": "Votre business mérite un meilleur site commercial",
        "subtitle": "Plus rapide, mieux référencé, et qui convertit vos visiteurs en clients !"
      },
      "header": {
        "title": "Je réalise votre site sur mesure grâce au générateur de sites statiques Gatsby.js"
      },
      "section": {
        "gatsby": {
          "title": "Pourquoi Gatsby ?",
          "intro": "« <b>Plus de 50% de vos visiteurs abandonneront votre site si le chargement prend plus de 3 secondes</b>. Cela se traduit directement par une perte de revenus, une diminution de la conversion de leads et une expérience utilisateur médiocre.<br/> Tirez le meilleur parti de votre site Web avec un site extrêmement rapide et optimisé pour le <b>référencement</b>, la <b>conversion de leads</b> et la <b>génération de revenus</b>. <br/>Gatsby est le moyen moderne de créer des sites Web et des applications <b>fiables</b> et <b>rapides</b>. »",
          "list": [
            {
              "title": "Vitesse",
              "important": "« Gatsby a franchi une nouvelle étape dans la génération de sites web ultra-rapide, préconstruits. Les pages se chargent en millisecondes plutôt qu'en secondes...",
              "less_important": "Gatsby vous permet de créer des sites web rapides tout en gérant leur contenu très simplement, sans avoir à devenir un expert en performances web. <br/> Pour les sites de e-commerce, une amélioration d'une seconde du temps de chargement des pages peut augmenter les revenus de 7%. Moins une page prend du temps à charger, plus vous gagnez d'argent»",
              "image": false
            },
            {
              "title": "Seo",
              "important": "« Pensez à tout le temps que votre équipe de rédaction consacre à la création d'un contenu de qualité et optimisé pour le SEO, pour qu’au final votre classement Google soit pénalisé par un site Web trop lent.",
              "less_important": "Aujourd’hui le SEO classique ne suffit plus, pour être bien considéré par google, vous devez également avoir un site accessible, qui respecte les « best practice » du développement et qui soit rapide à s’afficher, peut importe la qualité du réseau. »",
              "image": false
            },
            {
              "title": "Evolutivité",
              "important": " « L’évolutivité de la gestion de votre trafic, la complexité de votre produit et de ses fonctionnalités, ainsi que votre processus de développement, bénéficieront de votre choix d’utiliser Gatsby.",
              "less_important": "Les sites Gatsby peuvent être entièrement déployés sur un CDN, ce qui élimine efficacement les risques de temps d'arrêt dus aux pics de trafic. Si votre site ou votre application doit prendre en charge de nouvelles fonctionnalités, Gatsby peut extraire du contenu d’autant de sources que vous le souhaitez. <br/> Gatsby est construit sur React.js, et est donc très apprécié des développeurs »",
              "image": false
            },
            {
              "title": "Coûts",
              "important": "« L’hébergement via CDN pour des sites statiques coûte beaucoup moins cher que les coûts d’hébergement traditionnel.",
              "less_important": "Vous économiserez également de l'argent sur les ressources des équipes, car vos développeurs consacreront beaucoup moins de temps à l'optimisation des performances et à la configuration des intégrations. De plus, de nombreux gestionnaires ont trouvé plus facile et moins coûteux de recruter des personnes pour des projets Gatsby, car ils n’ont pas besoin de compétences spécialisées en CMS ni de l’expertise avancée nécessaire pour gérer des environnements complexes d’outillage et de développement. »",
              "image": false
            },
            {
              "title": "Sécurité",
              "important": "« Gatsby génère des pages HTML statiques au moment du build, cela signifie que vous n'avez pas besoin d'une base de données ou d'un système de gestion de contenu s'exécutant sur vos serveurs publics, deux sources communes de failles de sécurité",
              "less_important": "Le contenu statique est beaucoup plus facile à sécuriser.»",
              "image": false
            }
          ]
        }
      }
    }
  }
]
